{
  "version": 1,
  "dependencies": [
    {
      "source": {
        "git": {
          "remote": "https://github.com/brancz/kubernetes-grafana",
          "subdir": "grafana"
        }
      },
      "version": "18c50c83ea49291b0aa00067e4b2b386556ba0e3",
      "sum": "GEVLrcKGvUuvjq6bDhaWr4fOwkG5QMDpnUhHxUUywwg="
    },
    {
      "source": {
        "git": {
          "remote": "https://github.com/coreos/etcd",
          "subdir": "Documentation/etcd-mixin"
        }
      },
      "version": "c199d3d8c365a5507bb4ceaf1e0767d6ff87d275",
      "sum": "NhOkJWkO7ZO2DSE8Fvipcs7Hh2/GOCS0WjPPZU8OiaQ="
    },
    {
      "source": {
        "git": {
          "remote": "https://github.com/coreos/kube-prometheus",
          "subdir": "jsonnet/kube-prometheus"
        }
      },
      "version": "4f872f1e3187509e4c8d53d7e1f654b5fa422977",
      "sum": "8pGMGEIp8YC6bpvrxhkSdi/mBbexogdFnvHPlZJmfg4="
    },
    {
      "source": {
        "git": {
          "remote": "https://github.com/grafana/grafonnet-lib",
          "subdir": "grafonnet"
        }
      },
      "version": "0cfef6b1e666316d40a255c93e1d98d2a2610009",
      "sum": "BVozpBqmTw67JSEDX9DRLEzCLMt0+aQjDBKGaTLS+Bc="
    },
    {
      "source": {
        "git": {
          "remote": "https://github.com/grafana/jsonnet-libs",
          "subdir": "grafana-builder"
        }
      },
      "version": "0d5c2119373cb53d9f02fb82b94857412f7540c8",
      "sum": "R5WJe6wW0R9vMpOAHaGFwcK8q4NmGZ0aLhdZGKDHeMU="
    },
    {
      "source": {
        "git": {
          "remote": "https://github.com/ksonnet/ksonnet-lib",
          "subdir": ""
        }
      },
      "version": "0d2f82676817bbf9e4acf6495b2090205f323b9f",
      "sum": "h28BXZ7+vczxYJ2sCt8JuR9+yznRtU/iA6DCpQUrtEg=",
      "name": "ksonnet"
    },
    {
      "source": {
        "git": {
          "remote": "https://github.com/kubernetes-monitoring/kubernetes-mixin",
          "subdir": ""
        }
      },
      "version": "b1005adad5940eee9366272ab4c85cf077e547c2",
      "sum": "FVMHGdPPdJ3OYoR2b2ZjqQq/cxmS7/Y5dYkA9oYQ3Vg="
    },
    {
      "source": {
        "git": {
          "remote": "https://github.com/kubernetes-monitoring/kubernetes-mixin",
          "subdir": "lib/promgrafonnet"
        }
      },
      "version": "b1005adad5940eee9366272ab4c85cf077e547c2",
      "sum": "VhgBM39yv0f4bKv8VfGg4FXkg573evGDRalip9ypKbc="
    },
    {
      "source": {
        "git": {
          "remote": "https://github.com/kubernetes/kube-state-metrics",
          "subdir": "jsonnet/kube-state-metrics"
        }
      },
      "version": "f1166b40298a6846a329f567d0d509d32ee45a81",
      "sum": "cJjGZaLBjcIGrLHZLjRPU9c3KL+ep9rZTb9dbALSKqA="
    },
    {
      "source": {
        "git": {
          "remote": "https://github.com/kubernetes/kube-state-metrics",
          "subdir": "jsonnet/kube-state-metrics-mixin"
        }
      },
      "version": "f1166b40298a6846a329f567d0d509d32ee45a81",
      "sum": "Yf8mNAHrV1YWzrdV8Ry5dJ8YblepTGw3C0Zp10XIYLo="
    },
    {
      "source": {
        "git": {
          "remote": "https://github.com/prometheus-operator/prometheus-operator",
          "subdir": "jsonnet/prometheus-operator"
        }
      },
      "version": "312d675008306b13c24d241bf4f0a882dbfa90d8",
      "sum": "NPuLvqEmYZ+dCQ/9U4wXtobBD6hYreEx3jPpLQKS/ig="
    },
    {
      "source": {
        "git": {
          "remote": "https://github.com/prometheus/node_exporter",
          "subdir": "docs/node-mixin"
        }
      },
      "version": "3b035c8fa1f75c4c00e57acc14fb71dfd62e31ee",
      "sum": "3jFV2qsc/GZe2GADswTYqxxP2zGOiANTj73W/VNFGqc="
    },
    {
      "source": {
        "git": {
          "remote": "https://github.com/prometheus/prometheus",
          "subdir": "documentation/prometheus-mixin"
        }
      },
      "version": "983ebb4a513302315a8117932ab832815f85e3d2",
      "sum": "TBq4SL7YsPInARbJqwz25JaBvvAegcnRCsuz3K9niWc=",
      "name": "prometheus"
    }
  ],
  "legacyImports": false
}
